
{
  "project": [
    {
      "FirstName-LastName": "Watcharapong Nasaree",
      "StudentID": "60114440266",
      "ProjectName": "Project Library",
      "code": {
        "rgba": [255,255,255,1],
        "hex": "#000"
      }
    }
    ]
}